dk\sdu\mmmi\controleum\api\weather\DataSource.class
dk\sdu\mmmi\controleum\api\weather\IWeatherServiceDriver.class
dk\sdu\mmmi\controleum\api\weather\Log.class
dk\sdu\mmmi\controleum\api\weather\WeatherServiceProvider.class
dk\sdu\mmmi\controleum\api\weather\DataSourceSetting.class
dk\sdu\mmmi\controleum\api\weather\Code.class
dk\sdu\mmmi\controleum\api\weather\WeatherCommunicationException.class
dk\sdu\mmmi\controleum\api\weather\Crypto.class
