C:\Users\yqu\OneDrive - Syddansk Universitet\Documents\NetBeansProjects\controleum-utilities\controleum-utilities\dk.sdu.mmmi.controleum.api.weather\src\main\java\dk\sdu\mmmi\controleum\api\weather\WeatherCommunicationException.java
C:\Users\yqu\OneDrive - Syddansk Universitet\Documents\NetBeansProjects\controleum-utilities\controleum-utilities\dk.sdu.mmmi.controleum.api.weather\src\main\java\dk\sdu\mmmi\controleum\api\weather\Code.java
C:\Users\yqu\OneDrive - Syddansk Universitet\Documents\NetBeansProjects\controleum-utilities\controleum-utilities\dk.sdu.mmmi.controleum.api.weather\src\main\java\dk\sdu\mmmi\controleum\api\weather\Log.java
C:\Users\yqu\OneDrive - Syddansk Universitet\Documents\NetBeansProjects\controleum-utilities\controleum-utilities\dk.sdu.mmmi.controleum.api.weather\src\main\java\dk\sdu\mmmi\controleum\api\weather\DataSource.java
C:\Users\yqu\OneDrive - Syddansk Universitet\Documents\NetBeansProjects\controleum-utilities\controleum-utilities\dk.sdu.mmmi.controleum.api.weather\src\main\java\dk\sdu\mmmi\controleum\api\weather\WeatherServiceProvider.java
C:\Users\yqu\OneDrive - Syddansk Universitet\Documents\NetBeansProjects\controleum-utilities\controleum-utilities\dk.sdu.mmmi.controleum.api.weather\src\main\java\dk\sdu\mmmi\controleum\api\weather\Crypto.java
C:\Users\yqu\OneDrive - Syddansk Universitet\Documents\NetBeansProjects\controleum-utilities\controleum-utilities\dk.sdu.mmmi.controleum.api.weather\src\main\java\dk\sdu\mmmi\controleum\api\weather\DataSourceSetting.java
C:\Users\yqu\OneDrive - Syddansk Universitet\Documents\NetBeansProjects\controleum-utilities\controleum-utilities\dk.sdu.mmmi.controleum.api.weather\src\main\java\dk\sdu\mmmi\controleum\api\weather\IWeatherServiceDriver.java
