dk\sdu\mmmi\controleum\impl\entities\results\OutdoorTemperatureForecast.class
dk\sdu\mmmi\controleum\impl\entities\config\LightForecastConfig.class
dk\sdu\mmmi\controleum\impl\entities\units\MegaWatt.class
dk\sdu\mmmi\controleum\impl\entities\units\SqrMeter.class
dk\sdu\mmmi\controleum\impl\entities\config\ChartConfig.class
dk\sdu\mmmi\controleum\impl\entities\results\HourPlan.class
dk\sdu\mmmi\controleum\impl\entities\config\LightPlanConfig$1.class
dk\sdu\mmmi\controleum\impl\entities\units\MolSqrMeter.class
dk\sdu\mmmi\controleum\impl\entities\units\KiloWattHour.class
dk\sdu\mmmi\controleum\impl\entities\config\TemperatureForecastConfig.class
dk\sdu\mmmi\controleum\impl\entities\units\Watt.class
dk\sdu\mmmi\controleum\impl\entities\config\LightPlanConfig$Builder.class
dk\sdu\mmmi\controleum\impl\entities\results\OutdoorLightForecast.class
dk\sdu\mmmi\controleum\impl\entities\config\EnergyPriceDatabaseType.class
dk\sdu\mmmi\controleum\impl\entities\units\MoneyMegaWattHour.class
dk\sdu\mmmi\controleum\impl\entities\config\EnergyPriceDatabaseArea.class
dk\sdu\mmmi\controleum\impl\entities\config\ElPriceForecastConfig.class
dk\sdu\mmmi\controleum\impl\entities\results\LightPlan.class
dk\sdu\mmmi\controleum\impl\entities\units\KiloWatt.class
dk\sdu\mmmi\controleum\impl\entities\units\MegaWattHour.class
dk\sdu\mmmi\controleum\impl\entities\results\PARHourGoal.class
dk\sdu\mmmi\controleum\impl\entities\units\Money.class
dk\sdu\mmmi\controleum\impl\entities\units\UMolSqrMeter.class
dk\sdu\mmmi\controleum\impl\entities\units\Percent.class
dk\sdu\mmmi\controleum\impl\entities\units\PPM.class
dk\sdu\mmmi\controleum\impl\entities\units\Celcius.class
dk\sdu\mmmi\controleum\impl\entities\units\Switch.class
dk\sdu\mmmi\controleum\impl\entities\units\UMolSqrtMeterSecond.class
dk\sdu\mmmi\controleum\impl\entities\units\MMolSqrMeter.class
dk\sdu\mmmi\controleum\impl\entities\units\WattSqrMeter.class
dk\sdu\mmmi\controleum\impl\entities\config\LightPlanConfig.class
dk\sdu\mmmi\controleum\impl\entities\units\TimeStamp.class
dk\sdu\mmmi\controleum\impl\entities\units\Energy.class
dk\sdu\mmmi\controleum\impl\entities\results\ElPriceMWhForecast.class
dk\sdu\mmmi\controleum\impl\entities\utils\DateUtil.class
