dk\sdu\mmmi\controleum\control\generic\hazelcast\input\InputConfig.class
dk\sdu\mmmi\controleum\control\generic\hazelcast\input\InputConfigManager.class
dk\sdu\mmmi\controleum\control\generic\hazelcast\input\InputValueListener.class
dk\sdu\mmmi\controleum\control\generic\hazelcast\output\OutputImpl.class
dk\sdu\mmmi\controleum\control\generic\hazelcast\input\InputImpl.class
dk\sdu\mmmi\controleum\control\generic\hazelcast\HazelcastIO.class
dk\sdu\mmmi\controleum\control\generic\hazelcast\input\InputConfigEvent.class
dk\sdu\mmmi\controleum\control\generic\hazelcast\output\OutputConfigManager.class
dk\sdu\mmmi\controleum\control\generic\hazelcast\ControleumValueOutput.class
dk\sdu\mmmi\controleum\control\generic\hazelcast\output\OutputConfig.class
dk\sdu\mmmi\controleum\control\generic\hazelcast\output\OutputConfigEventListener.class
dk\sdu\mmmi\controleum\control\generic\hazelcast\output\OutputValueListener.class
dk\sdu\mmmi\controleum\control\generic\hazelcast\output\OutputConfigEvent.class
dk\sdu\mmmi\controleum\control\generic\hazelcast\input\InputConfigEventListener.class
dk\sdu\mmmi\controleum\control\generic\hazelcast\ControleumValueInput.class
