C:\Users\yqu\OneDrive - Syddansk Universitet\Documents\NetBeansProjects\controleum-utilities\controleum-utilities\dk.sdu.mmmi.controleum.control.generic.hazelcast\src\main\java\dk\sdu\mmmi\controleum\control\generic\hazelcast\output\OutputValueListener.java
C:\Users\yqu\OneDrive - Syddansk Universitet\Documents\NetBeansProjects\controleum-utilities\controleum-utilities\dk.sdu.mmmi.controleum.control.generic.hazelcast\src\main\java\dk\sdu\mmmi\controleum\control\generic\hazelcast\input\InputConfigEventListener.java
C:\Users\yqu\OneDrive - Syddansk Universitet\Documents\NetBeansProjects\controleum-utilities\controleum-utilities\dk.sdu.mmmi.controleum.control.generic.hazelcast\src\main\java\dk\sdu\mmmi\controleum\control\generic\hazelcast\output\OutputConfigEvent.java
C:\Users\yqu\OneDrive - Syddansk Universitet\Documents\NetBeansProjects\controleum-utilities\controleum-utilities\dk.sdu.mmmi.controleum.control.generic.hazelcast\src\main\java\dk\sdu\mmmi\controleum\control\generic\hazelcast\output\OutputConfigEventListener.java
C:\Users\yqu\OneDrive - Syddansk Universitet\Documents\NetBeansProjects\controleum-utilities\controleum-utilities\dk.sdu.mmmi.controleum.control.generic.hazelcast\src\main\java\dk\sdu\mmmi\controleum\control\generic\hazelcast\output\OutputImpl.java
C:\Users\yqu\OneDrive - Syddansk Universitet\Documents\NetBeansProjects\controleum-utilities\controleum-utilities\dk.sdu.mmmi.controleum.control.generic.hazelcast\src\main\java\dk\sdu\mmmi\controleum\control\generic\hazelcast\ControleumValueInput.java
C:\Users\yqu\OneDrive - Syddansk Universitet\Documents\NetBeansProjects\controleum-utilities\controleum-utilities\dk.sdu.mmmi.controleum.control.generic.hazelcast\src\main\java\dk\sdu\mmmi\controleum\control\generic\hazelcast\input\InputConfigEvent.java
C:\Users\yqu\OneDrive - Syddansk Universitet\Documents\NetBeansProjects\controleum-utilities\controleum-utilities\dk.sdu.mmmi.controleum.control.generic.hazelcast\src\main\java\dk\sdu\mmmi\controleum\control\generic\hazelcast\HazelcastIO.java
C:\Users\yqu\OneDrive - Syddansk Universitet\Documents\NetBeansProjects\controleum-utilities\controleum-utilities\dk.sdu.mmmi.controleum.control.generic.hazelcast\src\main\java\dk\sdu\mmmi\controleum\control\generic\hazelcast\output\OutputConfigManager.java
C:\Users\yqu\OneDrive - Syddansk Universitet\Documents\NetBeansProjects\controleum-utilities\controleum-utilities\dk.sdu.mmmi.controleum.control.generic.hazelcast\src\main\java\dk\sdu\mmmi\controleum\control\generic\hazelcast\input\InputConfig.java
C:\Users\yqu\OneDrive - Syddansk Universitet\Documents\NetBeansProjects\controleum-utilities\controleum-utilities\dk.sdu.mmmi.controleum.control.generic.hazelcast\src\main\java\dk\sdu\mmmi\controleum\control\generic\hazelcast\input\InputConfigManager.java
C:\Users\yqu\OneDrive - Syddansk Universitet\Documents\NetBeansProjects\controleum-utilities\controleum-utilities\dk.sdu.mmmi.controleum.control.generic.hazelcast\src\main\java\dk\sdu\mmmi\controleum\control\generic\hazelcast\output\OutputConfig.java
C:\Users\yqu\OneDrive - Syddansk Universitet\Documents\NetBeansProjects\controleum-utilities\controleum-utilities\dk.sdu.mmmi.controleum.control.generic.hazelcast\src\main\java\dk\sdu\mmmi\controleum\control\generic\hazelcast\ControleumValueOutput.java
C:\Users\yqu\OneDrive - Syddansk Universitet\Documents\NetBeansProjects\controleum-utilities\controleum-utilities\dk.sdu.mmmi.controleum.control.generic.hazelcast\src\main\java\dk\sdu\mmmi\controleum\control\generic\hazelcast\input\InputImpl.java
C:\Users\yqu\OneDrive - Syddansk Universitet\Documents\NetBeansProjects\controleum-utilities\controleum-utilities\dk.sdu.mmmi.controleum.control.generic.hazelcast\src\main\java\dk\sdu\mmmi\controleum\control\generic\hazelcast\input\InputValueListener.java
