-------------------------------------------------------------------------------
Test set: dk.sdu.mmmi.controleum.impl.weather.JDBCWeatherServiceImplTest
-------------------------------------------------------------------------------
Tests run: 1, Failures: 0, Errors: 0, Skipped: 0, Time elapsed: 3.986 sec - in dk.sdu.mmmi.controleum.impl.weather.JDBCWeatherServiceImplTest
