C:\Users\yqu\OneDrive - Syddansk Universitet\Documents\NetBeansProjects\controleum-utilities\controleum-utilities\dk.sdu.mmmi.controleum.impl.elprices.nordpool\src\main\java\dk\sdu\mmmi\controleum\impl\elprices\nordpool\EnergyPriceDatabaseImpl.java
C:\Users\yqu\OneDrive - Syddansk Universitet\Documents\NetBeansProjects\controleum-utilities\controleum-utilities\dk.sdu.mmmi.controleum.impl.elprices.nordpool\src\main\java\dk\sdu\mmmi\controleum\impl\elprices\nordpool\ElpriceExtrator.java
C:\Users\yqu\OneDrive - Syddansk Universitet\Documents\NetBeansProjects\controleum-utilities\controleum-utilities\dk.sdu.mmmi.controleum.impl.elprices.nordpool\src\main\java\dk\sdu\mmmi\controleum\impl\elprices\nordpool\EnergyPriceDatabaseConfig.java
